<?xml version="1.0" encoding="UTF-8"?>
<!DOCTYPE suite SYSTEM "http://testng.org/testng-1.0.dtd">
<suite thread-count="-1" name="Failed suite [Regression Suite (0)]" guice-stage="DEVELOPMENT" verbose="0">
  <listeners>
    <listener class-name="main.java.com.airtel.managers.RetryListener"/>
  </listeners>
  <test name="Airtel firefox Tests(failed)" verbose="0">
    <parameter name="browser" value="firefox"/>
    <classes>
      <class name="test.java.testscripts.TC002_VerifyAddMoney">
        <methods>
          <include name="ExtentFlush"/>
          <include name="afterMethod"/>
          <include name="verifyAddMoneyTest"/>
          <include name="reports"/>
        </methods>
      </class> <!-- test.java.testscripts.TC002_VerifyAddMoney -->
      <class name="test.java.testscripts.TC001_VerifyLogin">
        <methods>
          <include name="ExtentFlush"/>
          <include name="afterMethod"/>
          <include name="reports"/>
          <include name="setUp"/>
          <include name="pageTitleVerify"/>
          <include name="closeApp"/>
        </methods>
      </class> <!-- test.java.testscripts.TC001_VerifyLogin -->
    </classes>
  </test> <!-- Airtel firefox Tests(failed) -->
</suite> <!-- Failed suite [Regression Suite (0)] -->
